Batch 53,Prasad,Mummidivarapu,91,9676929233
Batch 53,Swathi,Mummidivarapu,91,8919841127
Batch 53,Sangita,Nair,91,7875606449
Batch 53,Priyanka,Sanap,91,9850799718
Batch 53,Srikanth,Seshagiri,91,9845020017
Batch 53,Satish,Meda,91,9972477773
Batch 53,Manda,Joshi,91,9820386068
Batch 53,Bhavesh,Dhamale,91,8956009753
Batch 53,Sonali,Natu,91,9923435476
Batch 53,Pramod,Shinde,91,9869065253
Batch 53,Kumar,Abhishek,91,9930948650
Batch 53,Nayana,Prabhu,91,7030567810
Batch 53,Prakash,Nimabalkar,91,7620324210
Batch 53,Nesan,Divya,91,8151871420
Batch 53,Ruby,Shende,91,9431912932
Batch 53,Sandeep,Rathod,91,9881190907
Batch 53,Anuradha,Bokil,91,7676988218
Batch 53,Satish,Bokil,91,9822409936
Batch 53,Neetu,Kheria,91,9871082779
Batch 53,ARUDRA,S,91,9440194772
Batch 53,Nitesh Ranjan,Prasad,91,9920110462
Batch 53,Perumal,Raja,44,7404323953
Batch 53,Easwari,Raja,44,7405164796
Batch 53,Rajesh,Kanda,91,9872181276
Batch 53,Thiagaraja,S T,91,9500040062
Batch 53,Sonu,S T,91,9884040062
Batch 53,Mahesh,Jhawar,91,9328272331
Batch 53,Bharathi,Kudva,91,9619955192
Batch 53,Debadatta,Behera,91,9438548713
Batch 53,Taraben,Patel,91,9825123566
Batch 53,ASHISH,BHATIA,91,9888033196
Batch 53,Rajendra,Barwade,91,9833981658
Batch 53,DINESH,BARO,91,9101203941
Batch 53,Reena,Vats,91,9833455301
Batch 53,Neelu,Seth,91,7567119324
Batch 53,Ravindra,Shantagiri,91,96566872741
Batch 53,Bharat,Doshi,91,9324476081
Batch 53,Ramanathan,Chellam,91,9969759419
Batch 53,Sarita,Sukhrani,91,9372388701
Batch 53,Adarsh,Kiran,91,9993714047
Batch 53,Radha,Shingare,91,9075531412
Batch 53,Seetharaman,S,91,8050560020
Batch 53,Kawita,rani,91,8218421161
Batch 53,Vijay,Patil,91,9819258257
Batch 53,Sudhir,Satpute,91,9892348689
Batch 53,Rohini,Khalate,91,7350022555
Batch 53,Somlata,Kumar,91,8765585319
Batch 53,Pratibha,Vaste,91,9867064212
Batch 53,Gaurav,Bansal,91,8699033696
Batch 53,Meghana,Vaste,91,9820436718
Batch 53,ABHAY KUMAR,SINGH,91,7042929391
Batch 53,Ravi,Panjawani,91,9374604600
Batch 53,Waikar ,Sweta ,91,9167340784
Batch 53,Swanand,Kirkire,91,9820316874
Batch 53,Surendra,Machani ,91,9448288549
Batch 53,Treesha,Mehta,91,9819964674
Batch 53,Rajendra,Shinde,91,9922501789
Batch 53,Sumati,Borole,91,8080172526
Batch 53,Shyam,Lala,91,9820046622
Batch 53,N,Ramachandran,91,9911194397
Batch 53,Vandana,Vasa,91,9819830664
Batch 53,Javed,Sayyed,91,9665436044
Batch 53,Ajay,Dube,91,9724286557
Batch 53,Ajay,Parkash,91,9820075008
Batch 53,Kalyani,Sahoo,91,9822491565
Batch 53,Golok Bihari,Sahoo,91,9370010396
Batch 53,Vaishali,Karve,91,9890669758
Batch 53,Vishal,Ranpariya,91,9173534168
Batch 53,Ashwani,Gogia,91,9810904522
Batch 53,Balaji,Chari,91,8693062088
Batch 53,Pushpa ,Machani ,91,9008343338
Batch 53,Venkata Sirish,Tadepalli,91,7022398777
Batch 53,Kiran,Minejagi,91,9964066099
Batch 53,Suvarna,Hampanavar,91,9449142103
Batch 53,Ramesh,Minejagi,91,9980398660
Batch 53,Kumar,Sarita ,91,9421677238
Batch 53,Kumar,Arun ,91,9673001652
Batch 53,Atit,Sheth,91,9821198355
Batch 53,Kalpana,Shah,91,9860062038
Batch 53,Mohammad,Nasrulla,91,9916140786
Batch 53,Vanita,Bhandari,91,9881420721
Batch 53,Shruti,Kate,91,9130024238
Batch 53,K S,Chandrashekharaiah,91,9902273251
Batch 53,Kashmira,Dumasia,91,9833034135
Batch 53,Sarika,Walvekar,91,8975015289
Batch 53,Deepak,Arora,91,9833003499
Batch 53,Lovneesh,Singla,91,9216502892
Batch 53,Kamna,Singla,91,9216550251
Batch 53,Pawan,Shah,91,7760403787
Batch 53,Rajagopala,T,91,9742923426
Batch 53,Shankar Kumar,Parthsarathi,91,8000704510
Batch 53,Ning hoih,Ching,91,9941554679
Batch 53,Sameer,Sukhtankar,91,9372133300
Batch 53,Sumanta,Kumar,91,9032118987
Batch 53,Sourav,Banerjee,91,9661460340
Batch 53,Rajiv,Monga,91,9878797810
Batch 53,Rajesh,Pandey,91,9971800711
Batch 53,Venkatesh,C V,91,9446495500
Batch 53,Rajesh,Nair,91,7834990707
Batch 53,Anandh,Venkatraman,91,9880610510
Batch 53,Sridar,Ganesh,91,9738000650
Batch 53,Sumesh,Mohanan,91,8592091803
Batch 53,Samson Gnana Sundaram,Marumudi,91,9491144441
Batch 53,Seema,Dhawan,91,9411110597
Batch 53,Yogeshkumar,Rathi,91,9909851423
Batch 53,Deepika,Sharma,91,9850275889
Batch 53,Chittur Krishnan,SUBRAMANIAN,91,9567046232
Batch 53,Anuradha,SUBRAMANIAN,91,9567046271
Batch 53,Rajeshree,Ravi,91,7021262407
Batch 53,Prema,Jagannath,91,9940051154
Batch 53,Stani,Thomas,91,9496143503
Batch 53,Sanket,Naik,91,9820207871
Batch 53,PAREN,Adhyaru,91,9824030408
Batch 53,Sarala,Rao,91,9819572162
Batch 53,Hamid,Helmandi,91,93700300138
Batch 53,Samdup P,Bhutia,91,9760205354
Batch 53,Pramod,Sule,91,9860753019
Batch 53,Prabha,Kumar Balasubramanian,91,9176599340
Batch 53,Amarjit,SINGH,91,9212383957
Batch 53,Balaprabha,Subramanyam,91,8903080344
Batch 53,Kannan,Raman,971,523688239
Batch 53,Khushboo,Saini,91,8269494441
Batch 53,Saurabh,Bhatnagar,91,9818370657
Batch 53,SHOBHA,BHISE,91,9424440264
Batch 53,Mira,Savara,91,9930731161
Batch 53,Swati,Bhise,91,9811806611
Batch 53,Amit,Dubey,91,8787060544
Batch 53,Vinay,Shandilya,91,9810281963
Batch 53,Rajendra,Bhole,91,9922650017
Batch 53,Revati,Kulkarni,91,8237614683
Batch 53,Anil,Menon,91,9840627467
Batch 53,Priya,Sule,91,9890116921
Batch 53,Vaishali,BL,91,9663394761
Batch 53,Teena,Monga,91,8699360389
Batch 53,Ajelina,Monga,91,9216095160
Batch 53,Manjunath,Ramanna,91,9845931560
Batch 53,Sharad,Gite,91,7588567401
Batch 53,Seema,Surana,91,9907231144
Batch 53,Hifzan Ahmed,Hashmi,91,9826862820
Batch 53,Mv,Nandagopal,91,9440981333
Batch 53,Rakhi,Ramesh,65,98009403
Batch 53,Kalyani,Srinivas,91,9967971077
Batch 53,Sunita,Macwan,91,9974348108
Batch 53,Rekha,Gujar,91,9920542874
Batch 53,Deepa,Kuruvilla,91,9820542926
Batch 53,Malik,Minoo,91,9833934082
Batch 53,Anil,Menon,91,9769187001
Batch 53,Jaiprakash,Naidu,91,9987466995
Batch 53,Satish,Pathak,91,9792329148
Batch 53,H.R,Dash,91,9810057603
Batch 53,Vijay,Kharche,91,9867560999
Batch 53,Nitesh,Kumar,91,9713486800
Batch 53,Supriti,Kumar,91,8369756103
Batch 53,Jayshree,Raghavan,91,7738141089
Batch 53,Vijay,Raghavan,91,8108107074
Batch 53,Rama,Purushothaman,91,7678682262
Batch 53,Vaibhav ,Kambale,91,9892700531
Batch 53,Bornali,Mech,91,8879736848
Batch 53,varshav,gore,91,9702001568
Batch 53,Joshua,immanuel,91,9158457522
Batch 53,Balvinder,Singh,91,9820223433
Batch 53,RABISANKAR,KUNDU,91,9967237324
Batch 53,Leena,Biswas,91,9967361579
Batch 53,NIMISH,MANKAME,91,9819190855
Batch 53,GAURI,MANKAME,91,9324760385
Batch 53,Madhuri,Nadkarni,91,8692027888
Batch 53,Jaywant,Barkade,91,9920583362
Batch 53,Pushpa,Redkar,91,9892149409
Batch 53,Satish,Sawant,91,9819613288
Batch 53,Ruchi,Jain,91,9823731854
Batch 53,Samaresh,Sinha,91,9822631603
Batch 53,Banu Ramesh Babu,Kasturi,91,9944848110
Batch 53,Prasanna,Arun,91,9595424966
Batch 53,Rajendra,Joshi,91,8882641752
Batch 53,Neelima,Desai,91,9890016037
Batch 53,Mahesh,Gowda,91,9923206992
Batch 53,Sandhya,Gowda,91,7387700318
Batch 53,MANJUSHRI,PATHAK,91,9604915135
Batch 53,Ravikumar,Sajane,91,7755908001
Batch 53,Ravi,Kumar,91,9370544804
Batch 53,Shahaji,Patil,91,9921201077
Batch 53,Rohan,Misra,91,9810888456
Batch 53,Mayur,Deshmukh,91,9890050872
Batch 53,Jagjiwan Singh,Pabla,91,7263866655
Batch 53,Hardeep,Pabla,91,7263866644
Batch 53,Anuj,Srivastav,91,8527613030
Batch 53,Raj Lakshmi,Jaggi,91,9810188624
Batch 53,nitinkumar,lokhande,91,7972940402
Batch 53,Mala,Bhojwani,91,9820809867
Batch 53,Nirmala,Nair,91,9969229161
Batch 53,Unnikrishnan,Nair,91,9819615015
Batch 53,Anand,Deshmukh,91,9981271867
Batch 53,Deepika,Ganatra,91,9820219902
Batch 53,Ajay,Bhutkar,91,9702004696
Batch 53,Fauzia,Baig,91,9867316134
Batch 53,Jayshree,Mohite,91,9481107899
Batch 53,Amit,Koli,91,9845716383
Batch 53,Lancy,Fernandes,91,8080128752
Batch 53,Vikas,Parab,91,9820100742
Batch 53,Nitin,Waingankar,91,9920155631
Batch 53,Mangesh,Chavan,91,9423876066
Batch 53,Poornima,Mishra,91,9892355018
Batch 53,Rajesh,Gupta,91,8097020280
Batch 53,Suchita,Shinde,91,9022916688
Batch 53,Sujata,Zunjarrao,91,9594547155
Batch 53,Sumit,Mohanty,91,9820286883
Batch 53,Shyamsunder,Satavse,91,9967086003
Batch 53,Shamal,Satavse,91,9967086525
Batch 53,Asawari,Deshpande,91,9819326945
Batch 53,Girish,Agarwal,91,8976077660
Batch 53,Rekha,Agarwal,91,9320309100
Batch 53,Mahesh,Baride,91,9922501770
Batch 53,Vidyavati,S Rao,91,7019678484
Batch 53,Raksha,Mehta,91,9418042398
Batch 53,Ankit,Mehta,91,9594949726
Batch 53,Pradip,Pawar,91,9370103494
Batch 53,Jitendra,Mistry,91,9869473924
Batch 53,Pauline,Ravi,91,9246771197
Batch 53,Shyamala,Kulkarni,91,9820316521
Batch 53,Mandar,Dhande,91,9930554446
Batch 53,Rutuja,Chiplunkar,91,9820315613
Batch 53,Raybagkar,Kedar,91,9619808099
Batch 53,Mukta,Kedar,91,9619808005
Batch 53,Mahesh,Prasad,91,9819242747
Batch 53,Shilpa,Prasad,91,9819242749
Batch 53,Amita,Srivastav,91,9322088150
Batch 53,Satish,Kulkarni,91,9833085370
Batch 53,Mrunalini,Kulkarni,91,9819015248
Batch 53,Valentina,Cerejo,91,9821514040
Batch 53,Philomena,Russell,91,7045563793
Batch 53,Jeffrey,Russell,91,7506315793
Batch 53,Rupal,Zaveri,91,9892014894
Batch 53,Ravi,Aravamuthan,91,9594044231
Batch 53,Jaiprakash,Chauhan,91,9320567250
Batch 53,Dinesh,REVAPPA,91,9920148256
Batch 53,Sanjay,Kadtan,91,9967634078
Batch 53,Suresh,Nair,91,9821668259
Batch 53,Srilatha,Pakala,91,9032441024
Batch 53,Vandana,Pawar,91,9152735990
Batch 53,Mangesh,Pawar,91,9820534427
Batch 53,Mahesh,Deshpande,91,8805611048
Batch 53,Uma,Deshpande,91,9824801891
Batch 53,Mandar,Pimputkar,91,9309933187
Batch 53,V R,MANJUNATH,91,9845493509
Batch 53,Lakshmi,Madhusudan,91,9820930012
Batch 53,Ashish,Kumar,91,7567349823
Batch 53,Sarika,Chavan,91,8605196645
Batch 53,SACHIN,SHAH,91,9049104884
Batch 53,Yojana,Desai,91,9819528802
Batch 53,Dhaval,Patel,91,9998986824
Batch 53,Chanda,Seth,91,7738235095
Batch 53,Jayashree,Beldone,61,402445132
Batch 53,Tarun,Matai,91,7032658767
Batch 53,Meena,Chandramohan,91,9886085330
Batch 53,Ramchandra,Hungund,91,9880845375
Batch 53,Lakshmi,C,91,9008014000
Batch 53,Prema,Shekhar,91,9940663844
Batch 53,Pooja,Zamvar,91,9886637775
Batch 53,Bharat,Zamvar,91,9341100875
Batch 53,Rajpal,Singh,91,9322181916
Batch 53,Shakeel,Dalvi,91,9892230001
Batch 53,Shriram,Munde,91,9910711952
Batch 53,Prashant,Madhe,91,9850049521
Batch 53,Poonam,Nawale,91,9892375202
Batch 53,Seetha,Lakshmi,91,9840772892
Batch 53,Anuradha,Krishnan,91,9008066322
Batch 53,Supriya,Supriya,91,9819918821
Batch 53,Sanjay,GOEL,91,9319755112
Batch 53,Suresh Kumar,Duraisamy,91,7402086385
Batch 53,Annie,Luis,91,9769096184
Batch 53,Ramu,Vedaraman,91,9820231138
Batch 53,Anuradhha,Ramu,91,9820325072
Batch 53,Dishanth,Chandnani,91,8722886611
Batch 53,Shrikant,Desai,91,9448941466
Batch 53,Krishnakumar,Nair,91,9645785668
Batch 53,Neelam,Singh,91,7827022673
Batch 53,PRAVIN,CHAMPANERI,91,9879958954
Batch 53,Ramakant,Karle,91,9673198761
Batch 53,Rajeshwari,Karle,91,7741974901
Batch 53,Jyoti,Joshi,91,9960399475
Batch 53,Nilesh,Huparikar,61,452485063
Batch 53,Vaishali,Huparikar,61,424845063
Batch 53,Jayawant,Shinde,91,9821863467
Batch 53,Niraj,Gogia,971,566821087
Batch 53,Vasudeo,Nadkarni,91,9820640228
Batch 53,Kottresh,Kogali,91,6504839917
Batch 53,Sonal,Shah,91,8879804927
Batch 53,Divya,Lodha,91,9672944669
Batch 53,Ganesh,Kshirsagar,91,9823743253
Batch 53,Shantidevi,Maurya,91,9769906967
Batch 53,Umashankar,K,91,8050905248
Batch 53,Gayathri,K,91,9945372699
Batch 53,Karna,Reddy,91,9890001976
Batch 53,Kavita,Chougule,91,9480603256
Batch 53,Shyam,Durgude,91,9923146375
Batch 53,Sudhakar,Tajane,91,9850913711
Batch 53,Narsimha Rao,Nalluri,91,9920548661
Batch 53,Satyaranjan,Sethi,91,7702658101
Batch 53,Nilima,Patwardhan,91,9967692240
Batch 53,Sabesan,Nadar,91,9930896970
Batch 53,Radha,Jaisimha,91,9916968696
Batch 53,Jeelan,B,91,9611938514
Batch 53,Manisha,Gupta,91,8600530796
Batch 53,Balaraman,Subramani,91,8056444070
Batch 53,Mohsena,Khalil,91,9810271180
Batch 53,Sangita,Jape,91,8390592675
Batch 53,Milind,Jape,91,8390592663
Batch 53,Dilshad,Mulla,91,9921639375
Batch 53,Shrikant,Vaze,91,9881133005
Batch 53,Vaishali,Vaze,91,9822569680
Batch 53,Vaibhav,Kadam,91,8482479354
Batch 53,Wilson,Anthony,91,9833449389
Batch 53,Shilpa,Anthony,91,9819146487
Batch 53,BRIJESH,SRIVASTAVA,91,7574826430
Batch 53,Seema,Kadam,91,9920082220
Batch 53,Kannea,Devnani,91,9731837152
Batch 53,Saleha,Kausar,91,9970543920
Batch 53,Arun,Sharma,91,7018229461
Batch 53,Sheetal,Shete,91,9763810272
Batch 53,Ratnamala,Late,91,9766854173
Batch 53,Vanita,Pangarkar,91,9969608694
Batch 53,Ravindra,Babu,91,9845057372
Batch 53,Kuna,Sahoo,91,7770011799
Batch 53,Jinti,Shah,91,9372700827
Batch 53,Alok,Gupta,91,7011180631
Batch 53,Rekha,Vora,91,9819758799
Batch 53,Jeyalakshmi,Nadar,91,9930996970
Batch 53,Prakash ,Chetan ,91,9860097118
Batch 53,Duraiswami,Nadar,91,9930999511
Batch 53,Geeta,Iyengar,91,9930900514
Batch 53,Rahul,Shinde,91,9011053228
Batch 53,Kashmira,Mathukia,91,9820085065
Batch 53,Bela,Pandya,91,9820200870
Batch 53,Akshay,Shirwaiker,91,9049566932
Batch 53,Mukesh,Shah,91,9323844929
Batch 53,Bharat,Vora,91,9920324345
Batch 53,Sandeep,Sheth,91,8308539690
Batch 53,Alka,Doshi,91,9820309844
Batch 53,Swati,Bapte,91,9156518408
Batch 53,Vivek,Pophale,91,9011076860
Batch 53,HARJINDER SINGH,BANSAL,91,9714841300
Batch 53,Indera Mohan,Bisht,91,9418071163
Batch 53,Adivi,Rao,91,7573066555
Batch 53,Anna,Malhotra,91,9830029737
Batch 53,Sandeep,Bhagat,91,8860115595
Batch 53,Dr. Pravash,Mohapatra,91,9937010987
Batch 53,Ajay,Sharma,91,9820580264
Batch 53,Venkateswaran,R,91,8825804439
Batch 53,Neha,Singh,91,8586930464
Batch 53,Samir,Turki,91,9886773074
Batch 53,Anand,Radhakrishnan,91,8939823245
Batch 53,Chandraleka,Kannan,91,9944129470
Batch 53,Shreyas,Srinivasa,91,9880302369
Batch 53,Mahesh,Yadav,91,9983995825
Batch 53,Madhu,Valluri,91,8985762446
Batch 53,Vijaya Lakshmi,Valluri,91,9502420599
Batch 53,Swaraj,Sinha,91,9844026247
Batch 53,SANJAY,KEDILAYA,91,7624955745
Batch 53,SAURABH,DALELA,91,9810032987
Batch 53,Venkatesh,Shenoy,968,99347624
Batch 53,Yathiraju,Y,91,9845114812
Batch 53,Manu,K,91,9831062736
Batch 53,Ranendra,Goswami,91,8008944661
Batch 53,RAVI,SHANKAR,91,9386367548
Batch 53,Ramesh,Thumbikkatt,971,505545483
Batch 53,Denis,John,91,9895291098
Batch 53,Omana,Bhat,91,9791843029
Batch 53,Guda Venkata,Rami Reddy,91,9491178690
Batch 53,Sobha,Veeram Reddy,91,8790411552
Batch 53,Bharati,Kumar,91,8999646283
Batch 53,Amit,Mahendra,91,9620204369
Batch 53,YOGISH,SHENOY,91,9740170666
Batch 53,Kalpana,Porecha,91,9867521132
Batch 53,Chitralekha,Vijai,91,97450139595
Batch 53,Murali,Ganesan,91,9940068967
Batch 53,Meenakshi,Sharma,91,9971365345
Batch 53,AEK,DUTT,91,9666777918
Batch 53,Abha,Khandelwal,91,9426069653
Batch 53,Sanjeev,Kumar,91,7798655691
Batch 53,Sudip,Banerjee,91,9830240898
Batch 53,Jitendra,Barik,91,9967590490
Batch 53,SAURAV,SEN,91,9810700920
Batch 53,Chandarani,Sen,91,9810700520
Batch 53,Vaishali,Vaidya,91,9833003450
Batch 53,Vilas,Vaidya,91,7506275045
Batch 53,Deepti,V,91,8861858880
Batch 53,Rajashekhara,V,966,534384307
Batch 53,Satosh,Panday,91,8108140012
Batch 53,Rema,Marar,91,8383010653
Batch 53,shatin,goyal,91,9780008251
Batch 53,Suresh,Patil,91,9845253134
Batch 53,Suman,Patil,91,9880730416
Batch 53,Mayur,Ambole,91,9879108389
Batch 53,Kanchan,Akolkar,1,7149268469
Batch 53,Abhijit,Naik,91,8130993240
Batch 53,SUDHA,N,91,9535048218
Batch 53,Priya,Anand,91,9810731317
Batch 53,Anant,Kulkarni,91,9623928382
Batch 53,Rajendra,Shekhawat,91,7389098005
Batch 53,Nitin,Kashid,91,9011041927
Batch 53,Anil,Vora,91,9422161709
Batch 53,Minal,Talewar,91,9673332806
Batch 53,Tejal,"Mehta
",91,9892522987
Batch 53,Swapnil,Palve,91,7385189762
Batch 53,Deepa,Rajanpillai,91,8606534822
Batch 53,milind,Jadhav,91,9822600389
Batch 53,Vidyadhar,Chudhari,91,9611336357
Batch 53,Mittal,Shah,1,3476244422
Batch 53,Sunita,Bhandari,91,9768044312
Batch 53,Mahendra Singh,Bhandari,91,9820268651
Batch 53,Guleria,Upkar,91,9899242344
Batch 53,Mandar,Jagushte,91,9175626225
Batch 53,Anand,Dubey,91,9035277021
Batch 53,Satish,s,91,9986008419
Batch 53,Shrinivas,Amagal,91,9448143243
Batch 53,Uday,Chipre,91,9019583818
Batch 53,Ratnalekha,Shetty,91,9766508707
Batch 53,Virender,Singh,91,9971468172
Batch 53,Sunanda,Murthy,91,9845117469
Batch 53,Kamarajan,M,91,9442839304
Batch 53,Uday,Vaidya,91,8291878832
Batch 53,Ashish,Govande,44,7891150597
Batch 53,Patala,Shreeja,91,7893275969
Batch 53,Karabasappa,Khajurkar,91,9890237629
Batch 53,Mahesh,More,91,9890769642
Batch 53,Gurvindra,Kaur,91,8299216407
Batch 53,Rajkishore,Prasad,91,9423206052
Batch 53,Gurunath,Korgaonkar,91,9867015115
Batch 53,Swati,Pillai,91,9819184872
Batch 53,Anuradha,Latpate,91,8698998080
Batch 53,Rani,Biradar,91,9623389673
Batch 53,Rakesh,MORE,91,9011066877
Batch 53,Sarfaraz,Ahmed,91,9502660269
Batch 53,Somashekhar,Kagati,91,9448874859
Batch 53,Ramesh,Patil,91,8975970866
Batch 53,Anvesh,Kallakuri,91,9971391422
Batch 53,Srinath,Murthy,91,9108572151
Batch 53,Anushashri,N,91,9884817788
Batch 53,Chetan,Deshpande,91,7875552011
Batch 53,Chetan,Chauhan,91,9773136368
Batch 53,GAUTAM,BHATIKAR,91,9820501073
Batch 53,Suresh,Purohit,91,9926550148
Batch 53,kiran,Konkar,91,9822100539
Batch 53,Nina,Shah,91,9819603288
Batch 53,Pathan,Pathan,91,9920970021
Batch 53,VIVEK,MHATRE,91,9820110800
Batch 53,MAHESH,UBHADIYA,91,7069294355
Batch 53,Ramkrishna,Rane,91,7977599571
Batch 53,Anand,Koli,91,9448897109
Batch 53,Abbasaheb,Kore,91,9448473264
Batch 53,Amit,Deshmukh,91,9860467278
Batch 53,B P,Eswaraiah,91,9480832000
Batch 53,Ashwini,Virji,91,9850977471
Batch 53,Sameer,Deogirikar,91,8411973982
Batch 53,Pratidnya,Deogirikar,91,9158866582
Batch 53,Virendra,Patel,91,9428168860
Batch 53,Yuvraj,Tamkhade,91,9325988773
Batch 53,Reeta,Bansode,91,9545506095
Batch 53,Nisha,Desai,91,6047888730
Batch 53,Jaysing,Lonkar,91,9372108384
Batch 53,Usha,Mishra,91,7989485183
Batch 53,Rajesh,Makwana,91,9106916367
Batch 53,VIKAS,GAIKWAD,91,9860186291
Batch 53,Hitesh,Khokhani,91,9824411009
Batch 53,Baby,Kumavat,91,9324111619
Batch 53,Yashvant,Dharmadhikari,91,9833553209
Batch 53,Anjali,Dharmadhikari,91,9967054812
Batch 53,Manjiri,Deshpande,91,2027006098
Batch 53,Anil,Raikar,91,9881459392
Batch 53,Malini,Thadani,91,9820140922
Batch 53,Sunitta,Patel,91,9228002880
Batch 53,Suma,G,91,9880203261
Batch 53,Sujata,Patil,91,7350796834
Batch 53,Dr. Sarita,Jamkhindikar,91,9158439993
Batch 53,Surekha,Bodkhe,91,9870114668
Batch 53,Vivek,Mittal,91,7542035101
Batch 53,Leena,Motwani,91,8888061299
Batch 53,Chanda,Gotarne,91,9922716616
Batch 53,Yogesh,Gotarne,91,8308311422
Batch 53,NITIN,PAWAR,91,9833754858
Batch 53,Ranjana,Soni,91,9818337338
Batch 53,K SARAVANA,PRABHU,91,9840298209
Batch 53,MOHANADEVI,PRABHU,91,8754590088
Batch 53,R,Rajalakshmi,91,6381110417
Batch 53,Dr. S. M.,Dodamani,91,9986399216
Batch 53,Sunil,Patil,91,9900553577
Batch 53,Richa,Shukla,91,9920747567
Batch 53,Parnika,Vadnere,91,9307398650
Batch 53,Kruti,Thakkar,91,9537560981
Batch 53,Manish,Thakkar,91,9825110257
Batch 53,Devraj,Badiger,91,9820116542
Batch 53,Snehal,Sarade,91,9820562825
Batch 53,Jagdeshwari,Patil,91,9970517692
Batch 53,Ganji,Venkata Giridhar,91,9490171545
Batch 53,Sachin,Sharma,91,9560599363
Batch 53,Kalpesh,Shah,91,8000348119
Batch 53,Parshuram,Kumavat,91,9819665888
Batch 53,ANANT,KULKARNI,91,9923202669
Batch 53,Manohar,Baywala,91,8340449917
Batch 53,Bhavana,Bagul,91,8554891407
Batch 53,Dhanraj,Bagul,91,9922930738
Batch 53,Shilpa,Pandit,91,9960528829
Batch 53,Abdul,Tadvi,91,7038879565
Batch 53,Mohhamad,Hussain,91,9823933095
Batch 53,Renuka,Janveja,91,8888385666
Batch 53,Manjusha,Gandhi,91,9922501969
Batch 53,Shubhananda,K B,91,9986672863
Batch 53,Katha,Pujara,91,7698220858
Batch 53,Pavan Ramesh,Birhade,91,9422173223
Batch 53,Ashiq,Jivani,91,7738079989
Batch 53,Amol,More,,9967142453
Batch 53,Anil,Gite,91,9421333399
Batch 53,Neelu,Seth,91,7567119324
Batch 53,Ravi,Panjawani,91,9374604600
Batch 53,Ajay,Dube,91,9724286557
Batch 53,Hitesh,Khokhani,91,9824411009
Batch 53,Anuradha,Bokil,91,7676988218
Batch 53,Satish,Bokil,91,9822409936
Batch 53,Kiran,Minejagi,91,9964066099
Batch 53,Suvarna,Hampanavar,91,9449142103
Batch 53,Ramesh,Minejagi,91,9980398660
Batch 53,Jayshree,Mohite,91,9481107899
Batch 53,Amit,Koli,91,9845716383
Batch 53,Meena,Chandramohan,91,9886085330
Batch 53,Ramchandra,Hungund,91,9880845375
Batch 53,Lakshmi,C,91,9008014000
Batch 53,Prema,Shekhar,91,9940663844
Batch 53,Pooja,Zamvar,91,9886637775
Batch 53,Bharat,Zamvar,91,9341100875
Batch 53,Shrikant,Desai,91,9448941466
Batch 53,Kavita,Chougule,91,9480603256
Batch 53,Shrinivas,Amagal,91,9448143243
Batch 53,Anand,Koli,91,9448897109
Batch 53,Abbasaheb,Kore,91,9448473264
Batch 53,Dr. S. M.,Dodamani,91,9986399216
Batch 53,Sunil,Patil,91,9900553577
Batch 53,Surendra,Machani ,91,9448288549
Batch 53,Jayashree,Beldone,61,402445132
Batch 53,Pushpa ,Machani ,91,9008343338
Batch 53,Suresh,Patil,91,9845253134
Batch 53,Suman,Patil,91,9880730416
Batch 53,Mahesh,Deshpande,91,8805611048
Batch 53,Uma,Deshpande,91,9824801891
Batch 53,Shyam,Durgude,91,9923146375
Batch 53,Sudhakar,Tajane,91,9850913711
Batch 53,Swati,Bapte,91,9156518408
Batch 53,Renuka,Janveja,91,8888385666
Batch 53,Saleha,Kausar,91,9970543920
Batch 53,Abdul,Tadvi,91,7038879565
Batch 53,Bhavana,Bagul,91,8554891407
Batch 53,Shilpa,Pandit,91,9960528829
Batch 53,Dhanraj,Bagul,91,9922930738
Batch 53,Sumati,Borole,91,8080172526
Batch 53,Pavan Ramesh,Birhade,91,9422173223
Batch 53,Katha,Pujara,91,7698220858
Batch 53,Somashekhar,Kagati,91,9448874859
Batch 53,Priyanka,,91,7757045213
Batch 53,Akanksha,,91,9404309485
Batch 53,Dr Pramod,,91,9881912050
Batch 53,Dr Ritu,,91,9881912049
Batch 53,Eyob,,91,8208279893
Batch 53,Nivrutti,,91,9405845325
Batch 53,Deepti,,91,7709017300
Batch 53,Gayatri,,91,9545590208
Batch 53,Jacintha,,91,8087075057
Batch 53,Sandeep,,91,9970833352
Batch 53,kalyani,,91,7276818211
Batch 53,Pooja,,91,9768161921
Batch 53,Nitin Godbole,,91,9619914640
Batch 53,Bharati Banda Joshi,,91,9422010300
Batch 53,Ajit Inamdar,,91,8888809660
Batch 53,DIPTI BANDEKAR,,91,9833146944
Batch 53,Rachna Karnani,,91,9618333922
Batch 53,Ranjana Pathak,,91,8956666016
Batch 53,Ritu Lala,,91,9511249545
Batch 53,YASHKARAN SINGH LAULY,,91,9448147106
Batch 53,Vaishali Dhoot,,91,9423941048
Batch 53,SANTOSH,,91,8971525252
Batch 53,Pravin Joshi,,91,9819880141
Batch 53,Uma Nagaraj,,91,9422326556
Batch 53,Prachi Dinesh Helwade,,91,7030178181
Batch 53,Pooja Nandyalkar,,91,9552444851
Batch 53,Vijay Patil,,91,7507930511
Batch 53,Rahul Girme,,91,9422013009
Batch 53,Namrata Dekhane,,91,9689603340
Batch 53,Gauri Pande,,91,9284253437
Batch 53,Deepa Mekal,,91,9722533560
Batch 53,Padma Murugan,,91,9.71509E+11
Batch 53,Sunita Shende,,91,9986015539
Batch 53,Aarti Jain,,91,9811239650
Batch 53,Deepak manwadkar,,91,9763948305
Batch 53,Madhumita Kothe,,91,9420495950
Batch 53,Ketki Thakkar,,91,1.91848E+12
Batch 53,Smita shirwalkar,,91,9975135209
Batch 53,Prashant Mahurkar,,91,9822741714
Batch 53,Smita shirwalkar,,91,9975135209
Batch 53,Vaijayanti prakash Pawar,,91,9881055499
Batch 53,Girish Hiremath,,91,9972166377
Batch 53,Pranita Vivek Yatnalkar,,91,9822640930
Batch 53,Pankaj digambar Mandke,,91,9373777132
Batch 53,Mrs Manik Joshi,,91,8600141012
Batch 53,Sangeeta Gupta,,91,9723399941
Batch 53,Mahesh Dhebe,,91,7038043102
Batch 53,Milind Mungale,,91,8928465463
Batch 53,Vinod VYAS,,91,9711198663
Batch 53,Shweta Harihar Joshi,,91,9881134212
Batch 53,Archana p Upadhyaya,,91,9898428586
Batch 53,Shirish K. Belsare,,91,9822744213
Batch 53,Kulkarni Mahendra Balasaheb,,91,9850670999
Batch 53,Kulkarni Mahendra Balasaheb,,91,9850670999
Batch 53,Amitabh S Maindalkar,,91,8104046778
Batch 53,Swati sanjay Pujari,,91,9881235075
Batch 53,Preeti Thakkar,,91,9844092175
Batch 53,Sanjay Murlidhar Salunke,,91,9921677039
Batch 53,Dr Gopinath  ,,91,9527101317
Batch 53,Dr. Ramanand,,91,9342242212
Batch 53,Dr. Vaishali ,,91,9881159590
Batch 53,Veernarayan Kulkarni ,,91,9845588781
Batch 53,Dr. Dinesh ,,91,7666816913
Batch 53,Dr Santosh  ,,91,9763123231
Batch 53,Dr.Subodh ,,91,9822366371
Batch 53,Dr. Manisha ,,91,9898593570
Batch 53,TV GANESH,,91,9820543230
Batch 53,Dr Malhar,,91,9850839063
Batch 53,Ramchandra Khose,,91,8788118183
Batch 53,Aarti Jain,,91,9811239650
Batch 53,Amit Vishnoi,,91,9940036482
Batch 53,Deepak Kumar,,91,8750370044
Batch 53,Rinku Jain,,91,9868326454
Batch 53,Sangeeta Dhingra,,91,9873001525
Batch 53,Manjulata Jaiswal,,91,9158975578
Batch 53,Dr. Munjal Thakar,,91,9227926514
Batch 53,AshokSavalia,,91,9825023121
Batch 53,Rajeev,,91,9426487292
Batch 53,Neeta,,91,9921730258
Batch 53,Jayraman,,91,9890564192
Batch 53,Vasudha,,91,9822295524
Batch 53,Dr Pournima,,91,8308825934
