Batch 56,Ramchandra,Kulkarni,91,7498836646
Batch 56,Vidya,Kulkarni,91,9820095862
Batch 56,Sandhya,Puntambekar,91,74988366
Batch 56,Amit,Andraskar,91,9594909908
Batch 56,Sumit,Singhal,91,9837094847
Batch 56,Santosh,Ghonasgi,91,7760984891
Batch 56,Viji,Lakshmi,91,9047025020
Batch 56,Indira,Nair,91,9096567165
Batch 56,Sukanya,Soundar,91,9940196963
Batch 56,Mohammed,Abul Hassan,91,8925627717
Batch 56,Ekta,Rai,91,9850967654
Batch 56,Benjamin,D'costa,91,7720870001
Batch 56,Samitha,D'costa,91,7720870002
Batch 56,Rohit,Bangera,91,9886199961
Batch 56,Archana,Bhalla,91,8557890151
Batch 56,NARAYANKUMAR,PARAB,91,9930584128
Batch 56,DEEPALI,PARAB,91,9619595993
Batch 56,Mahantesh,Kamate,91,9535353637
Batch 56,Saraswathi Ramakrishnan,Kozhimuttam Balakrishnan,91,9959559828
Batch 56,Venkata krishna mohan,Mellacheruvu,91,9986913284
Batch 56,Brajesh,Kumar,65,97577404
Batch 56,Charuta,Kale,91,9422277090
Batch 56,VIDYASAGAR,KATRAPATI,91,9490168645
Batch 56,PRAFULLA,KATRAPATI,91,9573641680
Batch 56,Kota,Subrahmanya,91,9845566410
Batch 56,Vijayashri,Subrahmanya,91,9980863860
Batch 56,Mihir,Pandya,91,9424501234
Batch 56,DHAVNIL,SHAH,91,9819737137
Batch 56,BHALCHANDRA,UPADHYE,91,9821020334
Batch 56,Shreyanshraj,Kuppanatti,91,9739099702
Batch 56,C S,VENKATESH BABU,91,9894559590
Batch 56,Narinder,Wadhwa,91,9810008640
Batch 56,Mayur,Humbal,91,8800189248
Batch 56,Shiva Kumar,Karai,91,9848415698
Batch 56,Anand,Lohar,91,7020508825
Batch 56,Chandan,Kuiry,91,7602421880
Batch 56,Matta,Satyanarayan,91,9425295603
Batch 56,Sapna,Ahmed,91,9831012542
Batch 56,Saroj,Sharma,91,9922775222
Batch 56,VISHAL ANAND,HERENZ,91,8945887779
Batch 56,ANURAG,SHARMA,91,9831581824
Batch 56,Vijay Shanker,Bagalur,91,9845191477
Batch 56,Meghana,Sumanth,91,9945366460
Batch 56,Sikandar,Pathan,91,8879924907
Batch 56,Ambikeshwar,Sutrave,91,9448732188
Batch 56,Santosh,Pathak,1,4087185947
Batch 56,SMRUTI,Pathak,1,4086017166
Batch 56,Chandan,RoyChoudhury,91,8826210222
Batch 56,Molouk,Jafari,91,7410196015
Batch 56,Munazza,Pathan,91,7738275037
Batch 56,Rookaiya,Qatri,91,7774006561
Batch 56,Abhay Raj,Tomar,91,7080900708
Batch 56,PRASAD,MOPKAR,91,9822121213
Batch 56,SHWETA,MOPKAR,91,8806838712
Batch 56,G S,RAO,91,7353118576
Batch 56,Nirmal,Gupta,91,9899056028
Batch 56,Dilip,Harnagle,91,9820461635
Batch 56,Shweta,Harnagle,91,9579102412
Batch 56,Alok,Gidh,91,9769443240
Batch 56,Ashish,Kumar,91,9811079781
Batch 56,Rajesh,Parjapati,91,8884144564
Batch 56,ANOOP,K V,971,503720352
Batch 56,Alok,Ojha,91,9096871796
Batch 56,Mansha,Viradia,91,9765387072
Batch 56,Perumal,Udhayarasu,91,9884620541
Batch 56,Prakash,Tripathi,91,9930173352
Batch 56,Shubhangi,Tripathi,91,9819685134
Batch 56,Usha,Ganti,1,3018020232
Batch 56,sudhakara,Dhanireddy,1,9172153204
Batch 56,Dayanand,Kotnis,91,7710061606
Batch 56,Swati,Shukla,91,9727756467
Batch 56,Sushma,Shukla,91,8989112099
Batch 56,Rahil,Bhayani,91,9766554488
Batch 56,Rufi,Rahil,91,7387494713
Batch 56,Madhuri,Pawar,91,9922510546
Batch 56,Arvind,Kumar,91,9801518020
Batch 56,Usha,Dubey,91,9822001836
Batch 56,Milind,Savagaonkar,91,9845944544
Batch 56,Sheetal,Savagaonkar,91,9986014245
Batch 56,Videsh,Kadam,91,9967580150
Batch 56,Smita,Shah,91,9920349177
Batch 56,Manish,Potdar,91,9975809558
Batch 56,Rathiha,Ramessh,91,7200488857
Batch 56,Parag,Bhide,91,9881127099
Batch 56,Madhavi,Gaikwad,91,8788849710
Batch 56,Deepak,Gupta,91,9820098078
Batch 56,Kavita,Ravi,971,502550230
Batch 56,Dharambhat,shylaja,1,8055842334
Batch 56,Sathyavathi,Panchbhai,91,9833300726
Batch 56,Manasi,Phadlke,91,8788377029
Batch 56,Kumar,Raghuraman,91,9953822161
Batch 56,Radhika,Kumar,91,9871232456
Batch 56,Meena,Gulati,91,9881009214
Batch 56,Ranga Rao,Maddipati,91,9441663725
Batch 56,NILISHA,JARIWALA,91,9825133463
Batch 56,Nisha, Mehta,91,9930613111
Batch 56,Sachin,Kale,91,7875768813
Batch 56,Sohan,Mirajkar,91,7721855239
Batch 56,arun kumar,pandey,91,8985482042
Batch 56,nisha,pandey,91,9490483568
Batch 56,Sulbha,Kale,91,7798984348
Batch 56,Priyanka,Solanki,91,9930311607
Batch 56,Jyoti,Jumle,91,9970031662
Batch 56,Suman,Nagpaul,91,8860970972
Batch 56,Uma,Dinesh,965,99018196
Batch 56,Narendra,Prasad,91,9108980194
Batch 56,Priti,Shah,254,733614670
Batch 56,Rafeek Ahamad,Yusoof Y N,91,8105280888
Batch 56,Shikha,Seth,91,9820466815
Batch 56,Anirban,Kumbhakar,91,9955048075
Batch 56,Surekha,Khanolkar,91,7796330381
Batch 56,Amita,Khanolkar,91,9284662328
Batch 56,Amit,Pekam,65,98852106
Batch 56,Manju,Pande,91,7771096066
Batch 56,DIPTI,SHAH,1,3173730045
Batch 56,Kushal,Singhal,91,7727979526
Batch 56,Sumedha,Rajguru,91,9822860199
Batch 56,Piyush,Pratap,91,9453032879
Batch 56,Sandeep,Jain,91,9530207700
Batch 56,Sarvesh,Verma,91,9922448611
Batch 56,Rekha Vivek,Joshi,91,9820506315
Batch 56,Vivek Anant,Joshi,91,9322408008
Batch 56,Noopur,B,91,8104034650
Batch 56,Pankaj,Kumar,91,7022423245
Batch 56,Kaja,Mohamed Mustafa,91,9884409734
Batch 56,Virender,bhullar,91,9958275936
Batch 56,Suchit,gmail.com,91,9766510499
Batch 56,VJaishanker,VJaishanker,91,9868617934
Batch 56,Akhilesh Dutt,Sharma,91,9990701163
Batch 56,Kamala,Gopinath,91,9655463790
Batch 56,Ravneet,Kaur,91,8999358552
Batch 56,Shailendra,Singh,91,9339002111
Batch 56,Dilip,Dudhane,91,8766588649
Batch 56,Nikunj,Shah,91,9923585994
Batch 56,Sanjit,Narwekar,91,9764140691
Batch 56,Manjunath,V G,91,9845872819
Batch 56,Vijaykumar,Thakare,91,9975647246
Batch 56,Gopal,Sharma,91,9880677133
Batch 56,Mamata,Rai,91,9372405527
Batch 56,Arun,Trehan,91,9816020171
Batch 56,Rujareen,Dsouza,91,9869844557
Batch 56,Narayan chandra,Kar,91,8763701762
Batch 56,MOHIT,BHARGAVA,91,9829909000
Batch 56,Ashok kumar,Chandchlani,91,9415911055
Batch 56,Hardik,Shah,91,9594934330
Batch 56,Abhijit,Lole,91,9766533420
Batch 56,Dharitri,Moharatha,91,9040250415
Batch 56,PRITAMKUMAR,PATNAIK,91,9820154648
Batch 56,NILESH,SHETYE,91,8976439260
Batch 56,SNEHAL,BHISE,91,9820995909
Batch 56,MINAL,PENDSE,91,9920496340
Batch 56,AASHU,MADHAN,91,9820410258
Batch 56,Uday,Khedkar,91,9820349367
Batch 56,Shally,Khedkar,91,9820540026
Batch 56,Ramyareka,Deshkar,91,7801964031
Batch 56,VijayKumar,Handa,91,9422083606
Batch 56,Rajat,Handa,91,9422004115
Batch 56,Anagha,Mokhariwale,91,9826085557
Batch 56,Vijay,kumar,91,8059249649
Batch 56,Amritendu,Samanta,91,9477054842
Batch 56,Sunil,Patel,91,8827495866
Batch 56,Shahabuddin,Faysal,880,1715550717
Batch 56,Suchita,Gawankar,91,9821716759
Batch 56,Partha,Abhishek,91,7797676677
Batch 56,sunita,dhillon,91,9050099485
Batch 56,Gyanendra Mohan,Garg,91,9205569707
Batch 56,Ignatius,Vimal,91,9945677553
Batch 56,Dipaksinh,Chavda,91,9700001707
Batch 56,SANGEETA,MATHUR,91,9968287995
Batch 56,SURESHKUMAR,NAYEE,91,9824065168
Batch 56,Manish,Sinha,91,9717721639
Batch 56,Shubhangi,Tamboli,91,9322026324
Batch 56,Vikas,Agarwal,91,9999955677
Batch 56,Chandrakant,Machchhar,1,2017574730
Batch 56,Vivek,Machchhar,1,7326092842
Batch 56,Kher,Ravinder,91,9953033963
Batch 56,Shivkaran Singh,Yadav,91,9920869636
Batch 56,Shailendra Singh,Yadav,91,9838841373
Batch 56,THANALAKSHMI,M,91,9840814268
Batch 56,MUDISOODUM PERUMAL,M,91,9150332372
Batch 56,Vijay,Sengar,91,9950144930
Batch 56,Ritu,Goel,91,9811119139
Batch 56,Sunil,R,91,7824865920
Batch 56,Bhavesh,Bothra,91,9786175000
Batch 56,Upendra,Joshi,91,994816009
Batch 56,Vaishali,Joshi,91,9948130099
Batch 56,Dilip Kumar,Magunta,91,9036364964
Batch 56,Deshpande,Neela ,91,9881007256
Batch 56,Akshata,Shenoy,91,9833325426
Batch 56,David,D'souz,91,8147846234
Batch 56,Venkata,Yerramilli,91,9849211504
Batch 56,Nameet,Potnis,91,9821765850
Batch 56,Hema,Chandrashekar,91,7022621721
Batch 56,PRACHI,GAJINKAR,91,9820772267
Batch 56,VIKRANT,NIMJE,91,9158357710
Batch 56,Vadla,Ramesh,91,9492050285
Batch 56,Vrushali,Tambe,91,9763631310
Batch 56,KVS,SUDHEER KUMAR,91,7738053949
Batch 56,Anil,Jain,91,9341213202
Batch 56,Jagannathan,R,91,8825456106
Batch 56,Supriya,Nakhare,91,9909066111
Batch 56,Biswajit,Mallick,968,92822782
Batch 56,Sree,Desai,1,4438954444
Batch 56,Ishrat,Ullah,966,533375142
Batch 56,Monica,Gurnani,91,8511746831
Batch 56,Pooja,Parekh,91,9819824011
Batch 56,Sankar,S,91,9819331771
Batch 56,Gaddam,Vijay kumar Reddy,91,8885044444
Batch 56,S Sainathan,suryanarayanan,91,9930078109
Batch 56,Dilbag,Singh,91,9872363806
Batch 56,Nikhil,Chauhan,91,7069930421
Batch 56,Roya,Aryaei,91,26116314
Batch 56,Harshil,Patel,91,9428747172
Batch 56,Bishakha,Jain,91,9572514816
Batch 56,Prabhakar,Bhushetti,91,9845761295
Batch 56,Jignesh,Vasani,91,9925042671
Batch 56,Yogesh,Ambure,91,8379953627
Batch 56,Mahesh,Ambure,91,8275207948
Batch 56,Punam,Gandhi,91,9657859116
Batch 56,Vimmi,Jain,91,9888709222
Batch 56,Sangitaa,Dakssi,91,9820834610
Batch 56,Gaurav,Manchanda,91,9811737033
Batch 56,Arul,Paul,91,9837042422
Batch 56,Virendra,Doshi,91,9702396000
Batch 56,A V,Doshi,91,9820857561
Batch 56,Ishita,Marwah,91,9810069792
Batch 56,Lakshmi Karuna,Mahankali,91,9611588442
Batch 56,Srinivas Rao,Mahankali,91,9980079503
Batch 56,K R,Ranjan,91,9969702262
Batch 56,Mayur,Ramachandran,91,9980092390
Batch 56,RAJEEV,GHODAKE,91,9922956999
Batch 56,Neena,Gupta,91,9868217455
Batch 56,Rajani,Choudhary,91,9144262064
Batch 56,SANDEEP,SAWANT,91,9221110459
Batch 56,jasmine,kaur,91,9769431568
Batch 56,Cyrus,Lentin,91,9820094236
Batch 56,Satish,Gokani,91,9324537474
Batch 56,Anant,Sowale,91,9769465556
Batch 56,sunil,tiwari,91,7588113933
Batch 56,Anil (Shree),Chavan,91,9371010449
Batch 56,Chandrashekhar,Joshi,91,9112883999
Batch 56,sheetal,Elayath,91,9890787650
Batch 56,Tushar,Patel,91,9892027070
Batch 56,Shamji,Patel,91,9769807778
Batch 56,Gomati,Patel,91,9833551447
Batch 56,Mangesh,Kadam,91,9920842904
Batch 56,Ujval,Vayuvegula,91,9900622144
Batch 56,Narayanan,Muralidharan,91,9444979246
Batch 56,chandrabhushan,Bhondekar,91,9826719654
Batch 56,Dr. Chaitra,Pallavi,91,9845023247
Batch 56,Saurabh,Dutta,91,8283818420
Batch 56,B N,Reddy,91,9480693920
Batch 56,Vidhya,Umesh,91,9019103802
Batch 56,Sunil,Pugalia,91,9825138144
Batch 56,Sreedhara,Reddi,91,9949351566
Batch 56,Soumyadeep,Biswas,91,8420940409
Batch 56,Harini,AV,91,9535145005
Batch 56,Dolly,Bait,91,9619820984
Batch 56,Niveditha Reddy,Gaddam,91,9849852424
Batch 56,Sonali,Jawalkar,91,7350656176
Batch 56,matilda,sequeira,91,9322820290
Batch 56,SHANKER,SRIVASTAVA,91,9845720972
Batch 56,Bhavna,Sachdev,91,7879809100
Batch 56,Akthar,Jabeen,91,9393427767
Batch 56,Saurabh,Talathi,91,9702986602
Batch 56,Deepak,Talathi,91,9869543667
Batch 56,Subhash,Randive,91,9011088411
Batch 56,Dharmendra,Raghuwanshi,91,7738890429
Batch 56,Raju,Verma,91,9344777254
Batch 56,Aruna,Mayur,91,7874222287
Batch 56,Ashwin,Sagwekar,91,9930713983
Batch 56,Prashant,Sagwekar,91,9930913739
Batch 56,Ganesh,Salunke,91,9822617368
Batch 56,Darekar,Mahendra,91,9921511169
Batch 56,Neeta,Agarwal,91,9820336784
Batch 56,Deepak,Soni,91,9879570966
Batch 56,Sharad,Kirpan,91,9222055575
Batch 56,Kshama,Awasthi,91,8355822736
Batch 56,PRAKASH,SAPKAL,91,9850736057
Batch 56,Shahmida,Aslam,91,9400449601
Batch 56,Anees,Aslam,483,2710939
Batch 56,Sunil,Varghese,91,9344777254
Batch 56,Richa,Rikhy,91,7709582979
Batch 56,ANANDHI,SIVAGURU,91,9840419763
Batch 56,AMIT,BHOLE,44,7587550926
Batch 56,Tasneem,Bhavnagarwala,91,9840997647
Batch 56,Naufal,Puthukkudiyil,965,50633102
Batch 56,Subrat,Ojha,91,8895303396
Batch 56,Shenaz,Ali,91,8348220277
Batch 56,Renuka,Mahajan,91,9657983727
Batch 56,Ganesh,Pawar,91,9821135765
Batch 56,Guna,Venkata,91,9963144599
Batch 56,Yogita,Poddar,91,9167952030
Batch 56,Bhuma,Sachdeva,91,9717753877
Batch 56,Harinath,Seelam,91,9445242191
Batch 56,Suman,Prajapati,91,9152493948
Batch 56,Jagjit Singh,Ajjan,91,8454947462
Batch 56,Govind,Raj,91,8760653984
Batch 56,Ramnarayan,Pal,91,9874173169
Batch 56,Rashmi,Raote,91,9326607490
Batch 56,Arvind,Raote,91,9820481317
Batch 56,Devang,Shah,91,9820310023
Batch 56,Pravinkumar,Sakure,91,9422077339
Batch 56,Umesha,Rajendra prasad,968,98275596
Batch 56,Durga,Raut,91,9545664354
Batch 56,Anita,Vashisht,91,9560952111
Batch 56,SRI PRAKASH,SINGH,91,9833998833
Batch 56,Anoop,Goyat,91,9999684919
Batch 56,Narendra,Chaudhari,91,9869463471
Batch 56,Siva Subramanian,Kunisserry,91,8097172346
Batch 56,Rajyalakshmi,D,91,9500049562
Batch 56,Sandhya,Arora,91,9810674599
Batch 56,Ranjan,joshi,91,9769594983
Batch 56,Tanvi,Sinkar,1,8576155758
Batch 56,Ritika,Malhotra,91,9868430167
Batch 56,Rahul,Wairagade,91,7387004777
Batch 56,Ramesh,Yerne,91,9881989898
Batch 56,Anjani,Dubey,91,9893550447
Batch 56,Nitin,Shah,91,9820374722
Batch 56,Sarita,Jalan,91,8932051000
Batch 56,Vijaydurai,Nadar,91,8652311166
Batch 56,Nitya,Nadar,91,7400208689
Batch 56,Sunil,Astalkar,91,9769131729
Batch 56,Joseph,Vazhappilly,91,8007774665
Batch 56,Rakesh,Khanna,91,9820146715
Batch 56,sheetal,Khanna,91,9869757600
Batch 56,Harshad,Molankar,91,9869049419
Batch 56,Lakshmi,Suryanarayanan,91,9920592423
Batch 56,viral,makadiya,91,9227566666
Batch 56,Sachin,Gorave,91,9503028190
Batch 56,Neha,Gorave,91,7387532251
Batch 56,Kamini,Vora,91,8095774774
Batch 56,Deepa,Vora,91,809577477
Batch 56,Manish,Kembral,91,9769779972
Batch 56,Faisal,Khan,91,9965800000
Batch 56,Anil Kumar,Polamarasetty,91,9959021055
Batch 56,mudakappa (BABU),aiholi,91,9422390447
Batch 56,Sau. Sangeeta,Patil,91,8857863599
Batch 56,Sonia,Lalwani,91,8850791118
Batch 56,Avadhesh,VISHWAKARMA,91,7080202098
Batch 56,Rita,Wairagade,91,7665240177
Batch 56,Govindarasu,Krishna,971,523862086
Batch 56,Amarnath,C,91,9945561024
Batch 56,Umesh,Pathak,91,9591916919
Batch 56,Manisha,Pathak,91,9763161954
Batch 56,Vijaya,Tikone,91,8080337733
Batch 56,Nikhil,Jain,91,9897522529
Batch 56,Lal Kaur,Vyas,91,8696649991
Batch 56,Prabhudev,Kulkarni,91,9967114433
Batch 56,Anuradha,Kulkarni,91,9892310008
Batch 56,Deepti,Sharma,91,9891480686
Batch 56,SUMAN,MAHAJAN,91,8360269084
Batch 56,Suchita,Kumthekar,91,9898416106
Batch 56,Ramagopal,Bulusu,91,9840577846
Batch 56,Samad,Contractor,91,9892218920
Batch 56,Piyush,Rustagi,91,4426741673
Batch 56,Swarnamanjari,Das,91,9437488501
Batch 56,Vasudeva,Rao,91,9845594731
Batch 56,Balbir,Kaur,91,9911032286
Batch 56,PRAVEEN,TONGE,91,9960800111
Batch 56,Dr Gaurav Raj,Agarwal,91,9651064122
Batch 56,Shyam,Gidwani,34,670530530
Batch 56,Ekta,Gidwani,34,687903656
Batch 56,Priyanka,Sinha,91,8208815647
Batch 56,Vallabh,Revankar,91,8411031865
Batch 56,DEVIREDDY,MAHENDER REDDY,91,7013482008
Batch 56,Krishna,Subedi,91,9862166605
Batch 56,Ranjendra Kumar,Gurav,91,9922089675
Batch 56,Lalita,Lele,91,9960558720
Batch 56,Elizabeth,Peter,91,9850185760
Batch 56,Yuvraj,KADU LAVHALE,91,9657722551
Batch 56,Santosh,Kotgire,91,9860090621
Batch 56,Saurabh,Suri,91,9890258463
Batch 56,Savita,Kulkarni,91,9561093861
Batch 56,Anish,Bansal,91,9815620159
Batch 56,Harshal,Patil,91,9892170003
Batch 56,Rupali,Taad,91,9168574090
Batch 56,Wilson,Mendonca,971,505374406
Batch 56,Tabrez,Madaiwala,91,9673267866
Batch 56,Amit,Kashyap,91,9999883836
Batch 56,Anshu,Narang,1,6502150464
Batch 56,Rashi,Narang,1,6502150465
Batch 56,Rakesh,Bhatia,91,9871119686
Batch 56,Monisha,Bhatia,91,9873339795
Batch 56,Sampath Kumar,Dasari,91,9000542554
Batch 56,Kishor,Vora,91,9930039466
Batch 56,Rekha,Vora,91,9930166154
Batch 56,Nilank,Kumar,91,9958008882
Batch 56,Arun,Kumar,65,90265044
Batch 56,Digvijay,Shinde,91,9096022236
Batch 56,Lohith,Shivarudrappa,91,9164267785
Batch 56,Gaurav,Champ,1,6507095739
Batch 56,Premchand,Godha,91,9821053846
Batch 56,Praveen,Kumar,91,9411930371
Batch 56,Shodhan,Kotwal,91,9766722007
Batch 56,Heram,Bhoge,91,7755994950
Batch 56,Manish,Bharani,91,9845229921
Batch 56,Padmavathi,H V,91,9740662402
Batch 56,Gurunath,Kulkarni,91,9880480635
Batch 56,Lathifa,Azim,91,7829610422
Batch 56,Vishal,Rathi,91,9422206735
Batch 56,Sanjay,Bhavsar,91,9850865153
Batch 56,Manisha,Bhavsar,91,9552201776
Batch 56,Prithviraj,Vedpathak,91,9844094669
Batch 56,Balasaheb,Khemnar,91,9922196863
Batch 56,Purushottam,Lokhande,91,9421860222
Batch 56,Suresh,Yeotikar,91,9850975643
Batch 56,Sneha,Pandit,91,9881378365
Batch 56,Kailas,Sasane,91,9922321123
Batch 56,Shankar,Salunke,91,9850798341
Batch 56,Shila,Salunke,91,9011773361
Batch 56,VIVEK,Bhamare,91,9225126371
Batch 56,Medha,Bhamare,91,9225126351
Batch 56,Asif Igbal,Pathan,91,8105865302
Batch 56,Somnath,Kurhade,91,9823070721
Batch 56,Vaishali,Kurhade,91,9890279377
Batch 56,Rupali,Kothawade,91,9423971718
Batch 56,Nivruti,Patil,91,9890060210
Batch 56,Aditi,Shetkar,91,9011264004
Batch 56,Duryodhan,Athol,91,9449108286
Batch 56,Atul,Sheth,91,9376100208
Batch 56,BHATKAL,SATISH VASANT,91,9844061001
Batch 56,AKKAMAHADEVI,Ithali,91,9868260998
Batch 56,Anusha,Saggu,91,9739061500
Batch 56,Chandrashekhar,Chandrashekhar,91,9490751134
Batch 56,Dwarkabai,Bhosale,91,9673112792
Batch 56,Sahasra Vijay,Yadav,91,9880064277
Batch 56,B L,PATIL,91,7899799296
Batch 56,Nanasaheb,Jagtap,91,9881103112
Batch 56,Rajendra,Aher,91,9021077703
Batch 56,Amitab,Sinha,91,9334268880
Batch 56,Shanta,Dhawle,91,7038827824
Batch 56,Vasudevan,V Krishnamachari,91,9448489144
Batch 56,Uma,Vasudevan,91,9448360290
Batch 56,S.S.,Veeranna,91,9611320429
Batch 56,Pavan,Neelgund,91,9880631313
Batch 56,Teju,Solomon,91,9765050762
Batch 56,Mayadevi,K,91,9925596605
Batch 56,Makhija,K,91,992559660
Batch 56,Swarnadeepa,Rao,91,7030044466
Batch 56,Viresh,Vastrad,91,9243221679
Batch 56,Digambar,Bhamare,91,9892305430
Batch 56,Shrinivas,Kulkarni,91,9844965300
Batch 56,Nagalakshmi,Karanam,91,9108709610
Batch 56,Sukhwinder,Chandi,1,7323718830
Batch 56,Bijaya,Panda,91,8884949495
Batch 56,M,Venkataramana,91,9945564242
Batch 56,Karthik,Sankaran,91,9845009285
Batch 56,Parvathi,Vastrad,91,9900749659
Batch 56,Arun,Kumar,91,9916417823
Batch 56,Veena,Kumari,91,9900023241
Batch 56,Ramachandra,Bhat,91,9482771900
Batch 56,Manoj,Katti,91,7019988419
Batch 56,Krishna,Bhat,91,9448530731
Batch 56,Asha,Aouti,91,7899427423
Batch 56,Ajay ,Ekambikar ,91,7738088584
Batch 56,Amrit ,Vallabh ,91,9377456950
Batch 56,Manjunath,Ronad,91,9449806682
Batch 56,MOHAN,RAO,91,8971006820
Batch 56,Sasisekar,Krishnamoorthy,91,7022299999
Batch 56,B,Suchithra,91,7022299909
Batch 56,Udaya,Hegde,91,9448010880
Batch 56,ANAND,PATIL,91,9742448518
Batch 56,Veena,Rao,91,9972396150
Batch 56,Ravi,Rajapurohit,91,9731701000
Batch 56,Tara,Patwekar,91,7558774844
Batch 56,Pratibha ,Wagh ,91,9850029389
Batch 56,Satish,Poondla,91,9920039327
Batch 56,Priyanka,,91,7757045213
Batch 56,Akanksha,,91,9404309485
Batch 56,Dr Pramod,,91,9881912050
Batch 56,Dr Ritu,,91,9881912049
Batch 56,Eyob,,91,8208279893
Batch 56,Nivrutti,,91,9405845325
Batch 56,Deepti,,91,7709017300
Batch 56,Gayatri,,91,9545590208
Batch 56,Jacintha,,91,8087075057
Batch 56,Sandeep,,91,9970833352
Batch 56,kalyani,,91,7276818211
Batch 56,Pooja,,91,9768161921
Batch 56,Nitin Godbole,,91,9619914640
Batch 56,Bharati Banda Joshi,,91,9422010300
Batch 56,Ajit Inamdar,,91,8888809660
Batch 56,DIPTI BANDEKAR,,91,9833146944
Batch 56,Rachna Karnani,,91,9618333922
Batch 56,Ranjana Pathak,,91,8956666016
Batch 56,Ritu Lala,,91,9511249545
Batch 56,YASHKARAN SINGH LAULY,,91,9448147106
Batch 56,Vaishali Dhoot,,91,9423941048
Batch 56,SANTOSH,,91,8971525252
Batch 56,Pravin Joshi,,91,9819880141
Batch 56,Uma Nagaraj,,91,9422326556
Batch 56,Prachi Dinesh Helwade,,91,7030178181
Batch 56,Pooja Nandyalkar,,91,9552444851
Batch 56,Vijay Patil,,91,7507930511
Batch 56,Rahul Girme,,91,9422013009
Batch 56,Namrata Dekhane,,91,9689603340
Batch 56,Gauri Pande,,91,9284253437
Batch 56,Deepa Mekal,,91,9722533560
Batch 56,Padma Murugan,,91,9.71509E+11
Batch 56,Sunita Shende,,91,9986015539
Batch 56,Aarti Jain,,91,9811239650
Batch 56,Deepak manwadkar,,91,9763948305
Batch 56,Madhumita Kothe,,91,9420495950
Batch 56,Ketki Thakkar,,91,1.91848E+12
Batch 56,Smita shirwalkar,,91,9975135209
Batch 56,Prashant Mahurkar,,91,9822741714
Batch 56,Smita shirwalkar,,91,9975135209
Batch 56,Vaijayanti prakash Pawar,,91,9881055499
Batch 56,Girish Hiremath,,91,9972166377
Batch 56,Pranita Vivek Yatnalkar,,91,9822640930
Batch 56,Pankaj digambar Mandke,,91,9373777132
Batch 56,Mrs Manik Joshi,,91,8600141012
Batch 56,Sangeeta Gupta,,91,9723399941
Batch 56,Mahesh Dhebe,,91,7038043102
Batch 56,Milind Mungale,,91,8928465463
Batch 56,Vinod VYAS,,91,9711198663
Batch 56,Shweta Harihar Joshi,,91,9881134212
Batch 56,Archana p Upadhyaya,,91,9898428586
Batch 56,Shirish K. Belsare,,91,9822744213
Batch 56,Kulkarni Mahendra Balasaheb,,91,9850670999
Batch 56,Kulkarni Mahendra Balasaheb,,91,9850670999
Batch 56,Amitabh S Maindalkar,,91,8104046778
Batch 56,Swati sanjay Pujari,,91,9881235075
Batch 56,Preeti Thakkar,,91,9844092175
Batch 56,Sanjay Murlidhar Salunke,,91,9921677039
Batch 56,Dr Gopinath  ,,91,9527101317
Batch 56,Dr. Ramanand,,91,9342242212
Batch 56,Dr. Vaishali ,,91,9881159590
Batch 56,Veernarayan Kulkarni ,,91,9845588781
Batch 56,Dr. Dinesh ,,91,7666816913
Batch 56,Dr Santosh  ,,91,9763123231
Batch 56,Dr.Subodh ,,91,9822366371
Batch 56,Dr. Manisha ,,91,9898593570
Batch 56,TV GANESH,,91,9820543230
Batch 56,Dr Malhar,,91,9850839063
Batch 56,Ramchandra Khose,,91,8788118183
Batch 56,Aarti Jain,,91,9811239650
Batch 56,Amit Vishnoi,,91,9940036482
Batch 56,Deepak Kumar,,91,8750370044
Batch 56,Rinku Jain,,91,9868326454
Batch 56,Sangeeta Dhingra,,91,9873001525
Batch 56,Manjulata Jaiswal,,91,9158975578
Batch 56,Dr. Munjal Thakar,,91,9227926514
Batch 56,AshokSavalia,,91,9825023121
Batch 56,Rajeev,,91,9426487292
Batch 56,Neeta,,91,9921730258
Batch 56,Jayraman,,91,9890564192
Batch 56,Vasudha,,91,9822295524
Batch 56,Dr Pournima,,91,8308825934
,,,,
